<svg width="30" height="42" viewBox="0 0 30 42" fill="none" xmlns="http://www.w3.org/2000/svg">
<ellipse cx="15.0899" cy="37.8849" rx="11.0945" ry="3.96234" fill="#DD2819"/>
<path d="M15.0899 0.638916C7.224 0.638916 0.825439 7.03822 0.825439 14.9033C0.825439 25.4268 13.9863 37.9344 14.5466 38.4622C14.6998 38.6054 14.8948 38.6774 15.0899 38.6774C15.2849 38.6774 15.4799 38.6054 15.6332 38.4622C16.1934 37.9344 29.3543 25.4268 29.3543 14.9033C29.3543 7.03822 22.9557 0.638916 15.0899 0.638916Z" fill="#1D65A8"/>
<path d="M25.5463 10.0717L11.4754 4.38673C10.6851 4.06743 9.78559 4.44925 9.4663 5.23953L3.78129 19.3104C3.462 20.1007 3.84381 21.0002 4.63409 21.3195L18.705 27.0045C19.4953 27.3238 20.3948 26.942 20.714 26.1517L26.3991 12.0808C26.7183 11.2905 26.3365 10.391 25.5463 10.0717Z" fill="white"/>
<path d="M18.6804 27.0633L4.60921 21.3787C4.21413 21.2188 3.89865 20.9086 3.73203 20.5163C3.56541 20.124 3.56127 19.6816 3.72052 19.2863L9.40507 5.21509C9.56554 4.82013 9.87597 4.50486 10.2684 4.3383C10.6608 4.17173 11.1033 4.16745 11.4988 4.3264L25.5687 10.0109C25.9637 10.1714 26.2789 10.4818 26.4455 10.8743C26.6121 11.2667 26.6164 11.7091 26.4574 12.1047L20.7729 26.1746C20.6129 26.5697 20.3028 26.8852 19.9105 27.0518C19.5181 27.2184 19.0758 27.2225 18.6804 27.0633ZM11.4487 4.446C11.2684 4.37282 11.0755 4.33589 10.8809 4.33734C10.6863 4.33878 10.494 4.37856 10.3148 4.45441C10.1356 4.53026 9.97317 4.64069 9.83671 4.77938C9.70025 4.91807 9.59247 5.0823 9.51953 5.26267L3.84013 19.3339C3.76677 19.5141 3.72971 19.7071 3.73107 19.9017C3.73242 20.0963 3.77218 20.2887 3.84805 20.4679C3.92391 20.6472 4.03441 20.8096 4.17319 20.9461C4.31197 21.0825 4.47631 21.1902 4.6568 21.263L18.728 26.9475C18.9082 27.0209 19.1012 27.058 19.2958 27.0566C19.4904 27.0552 19.6828 27.0155 19.8621 26.9396C20.0413 26.8638 20.2038 26.7533 20.3402 26.6145C20.4766 26.4757 20.5843 26.3114 20.6571 26.1309L26.3378 12.0545C26.411 11.8743 26.4479 11.6813 26.4465 11.4868C26.445 11.2922 26.4052 11.0998 26.3294 10.9207C26.2535 10.7415 26.1431 10.579 26.0044 10.4426C25.8657 10.3061 25.7015 10.1983 25.5211 10.1254L11.4487 4.446Z" fill="#AEB7BD"/>
<path d="M19.8276 23.372C13.0434 20.6249 8.91503 15.0124 10.6037 10.8313C11.32 9.05003 12.9817 7.81666 15.1783 7.19805L11.9631 5.8991C11.6343 5.76721 11.2668 5.77083 10.9407 5.90916C10.6146 6.0475 10.3566 6.30929 10.223 6.63732L5.29338 18.8256C5.1615 19.1544 5.16512 19.5219 5.30345 19.848C5.44178 20.1741 5.70357 20.4321 6.0316 20.5657L18.2199 25.4902C18.5487 25.6221 18.9162 25.6185 19.2423 25.4801C19.5684 25.3418 19.8264 25.08 19.96 24.752L20.4269 23.5945C20.2275 23.5238 20.0269 23.4466 19.8276 23.372Z" fill="#028AD3"/>
<path d="M24.8475 12.771C24.9988 12.3922 24.994 11.969 24.8342 11.5938C24.6745 11.2186 24.3727 10.9219 23.9948 10.7685L20.089 9.18403C16.4377 9.00912 13.6353 9.97112 12.8135 12.0019C12.2991 13.261 12.6309 14.7554 13.6083 16.2846C15.8345 15.1001 19.5012 14.9779 23.546 15.9926L24.8475 12.771Z" fill="#DD2A1B"/>
<path d="M10.0742 19.0095C8.63861 18.4264 7.09719 18.1491 5.54841 18.1954L5.29119 18.8256C5.1593 19.1543 5.16292 19.5219 5.30125 19.848C5.43958 20.174 5.70138 20.4321 6.02941 20.5657L15.9709 24.5822C14.7866 22.0416 12.6776 20.0485 10.0742 19.0095Z" fill="#129BD8"/>
<path d="M11.5889 5.80908C11.498 6.88707 11.581 7.97265 11.8346 9.02432C12.6834 8.19608 13.8267 7.57746 15.1784 7.19807L11.9632 5.89911C11.8436 5.85075 11.7174 5.82041 11.5889 5.80908Z" fill="#129BD8"/>
</svg>
