<svg width="44" height="44" viewBox="0 0 44 44" fill="none" xmlns="http://www.w3.org/2000/svg">
<rect width="44" height="44" fill="white"/>
<path d="M21.1309 18.9062C21.1309 17.957 20.3614 17.1875 19.4122 17.1875H8.58405C7.63478 17.1875 6.8653 17.957 6.8653 18.9062C6.8653 19.8555 7.63478 20.625 8.58405 20.625H19.4122C20.3614 20.625 21.1309 19.8555 21.1309 18.9062Z" fill="#307FC9"/>
<path d="M8.58405 24.0625C7.63478 24.0625 6.8653 24.832 6.8653 25.7812C6.8653 26.7305 7.63478 27.5 8.58405 27.5H14.6951C15.6444 27.5 16.4139 26.7305 16.4139 25.7812C16.4139 24.832 15.6444 24.0625 14.6951 24.0625H8.58405Z" fill="#307FC9"/>
<path d="M8.67969 40.5625H6.875C4.97956 40.5625 3.4375 39.0204 3.4375 37.125V6.875C3.4375 4.97956 4.97956 3.4375 6.875 3.4375H28.0061C29.9015 3.4375 31.4436 4.97956 31.4436 6.875V18.3906C31.4436 19.3399 32.2131 20.1094 33.1623 20.1094C34.1116 20.1094 34.8811 19.3399 34.8811 18.3906V6.875C34.8811 3.08413 31.797 0 28.0061 0H6.875C3.08412 0 0 3.08413 0 6.875V37.125C0 40.9159 3.08412 44 6.875 44H8.67969C9.62895 44 10.3984 43.2305 10.3984 42.2812C10.3984 41.332 9.62895 40.5625 8.67969 40.5625Z" fill="#307FC9"/>
<path d="M28.0059 12.0312C28.0059 11.082 27.2364 10.3125 26.2872 10.3125H8.58405C7.63478 10.3125 6.8653 11.082 6.8653 12.0312C6.8653 12.9805 7.63478 13.75 8.58405 13.75H26.2872C27.2364 13.75 28.0059 12.9805 28.0059 12.0312Z" fill="#307FC9"/>
<path d="M27.1254 40.5625H27.1246C26.1753 40.5625 25.4062 41.332 25.4062 42.2812C25.4062 43.2305 26.1762 44 27.1254 44C28.0747 44 28.8442 43.2305 28.8442 42.2812C28.8442 41.332 28.0747 40.5625 27.1254 40.5625Z" fill="#DD2819"/>
<path d="M40.1069 37.4391L40.0547 37.3083L37.5309 33.1294L31.2663 22.9864C30.3862 21.5615 28.8614 20.7109 27.1872 20.7109C25.5132 20.7109 23.9883 21.5615 23.1083 22.9864L14.65 36.681C13.7227 38.1825 13.6822 39.9991 14.5419 41.5404C15.4009 43.0805 16.9662 44 18.7291 44H21.1095C22.0587 44 22.8282 43.2305 22.8282 42.2812C22.8282 41.332 22.0587 40.5625 21.1095 40.5625H18.7291C18.0102 40.5625 17.6609 40.0754 17.5441 39.866C17.427 39.656 17.1954 39.1013 17.5746 38.4874L26.0329 24.7928C26.3921 24.2113 26.9599 24.1484 27.1873 24.1484C27.4147 24.1484 27.9826 24.2112 28.3418 24.7928L34.5928 34.9137L36.9512 38.8187C37.0669 39.2018 37.0003 39.625 36.7657 39.9713C36.6161 40.1921 36.2717 40.5625 35.6456 40.5625H33.3127C32.3634 40.5625 31.5939 41.332 31.5939 42.2812C31.5939 43.2305 32.3634 44 33.3127 44H35.6456C37.2377 44 38.7203 43.2148 39.6115 41.8996C40.5081 40.5762 40.6933 38.9086 40.1069 37.4391Z" fill="#DD2819"/>
<path d="M27.125 38.8438C28.0743 38.8438 28.8438 38.0743 28.8438 37.125V30.6797C28.8438 29.7304 28.0743 28.9609 27.125 28.9609C26.1757 28.9609 25.4062 29.7304 25.4062 30.6797V37.125C25.4062 38.0743 26.1757 38.8438 27.125 38.8438Z" fill="#DD2819"/>
</svg>
